"mrn","accession","date","battery_code","test_code","value","flag"
"U123456","Acc1","2014-06-02","BMP","GLU","135.0","H"
"U123456","Acc1","2014-06-02","BMP","K","4.0",""
"U123456","Acc2","2014-06-03","CMP","GLU","90.0",""
"U123456","Acc2","2014-06-03","CMP","K","2.7","L"
"U654321","Acc3","2014-06-02","CMP","GLU","85.0",""
"U654321","Acc3","2014-06-02","CMP","K","4.1",""
"U654321","Acc4","2014-06-03","BMP","GLU","75.0",""
"U654321","Acc4","2014-06-03","BMP","K","4.2",""
